{
  "low": {
    "2018-10-1": 87,
    "2018-10-2": 88,
    "2018-10-3": 90,
    "2018-10-4": 89,
    "2018-10-5": 89,
    "2018-10-6": 80,
    "2018-10-7": 85,
    "2018-10-8": 67,
    "2018-10-9": 84,
    "2018-10-10": 72,
    "2018-10-11": 67,
    "2018-10-12": 86,
    "2018-10-13": 70,
    "2018-10-14": 68,
    "2018-10-15": 61,
    "2018-10-16": 74,
    "2018-10-17": 67,
    "2018-10-18": 78,
    "2018-10-19": 65,
    "2018-10-20": 72,
    "2018-10-21": 78,
    "2018-10-22": 81,
    "2018-10-23": 62,
    "2018-10-24": 86,
    "2018-10-25": 79,
    "2018-10-26": 86,
    "2018-10-27": 78,
    "2018-10-28": 75,
    "2018-10-29": 67,
    "2018-10-30": 87,
    "2018-10-31": 86,
    "2018-11-1": 75,
    "2018-11-2": 81,
    "2018-11-3": 88,
    "2018-11-4": 82,
    "2018-11-5": 76,
    "2018-11-6": 76,
    "2018-11-7": 68,
    "2018-11-8": 86,
    "2018-11-9": 70,
    "2018-11-10": 74,
    "2018-11-11": 60,
    "2018-11-12": 61,
    "2018-11-13": 73,
    "2018-11-14": 90,
    "2018-11-15": 69,
    "2018-11-16": 78,
    "2018-11-17": 81,
    "2018-11-18": 60,
    "2018-11-19": 86,
    "2018-11-20": 72,
    "2018-11-21": 73,
    "2018-11-22": 60,
    "2018-11-23": 88,
    "2018-11-24": 70,
    "2018-11-25": 60,
    "2018-11-26": 72,
    "2018-11-27": 71,
    "2018-11-28": 77,
    "2018-11-29": 77,
    "2018-11-30": 70,
    "2018-12-1": 69,
    "2018-12-2": 80,
    "2018-12-3": 73,
    "2018-12-4": 71,
    "2018-12-5": 84,
    "2018-12-6": 82,
    "2018-12-7": 68,
    "2018-12-8": 66,
    "2018-12-9": 76,
    "2018-12-10": 81,
    "2018-12-11": 61,
    "2018-12-12": 78,
    "2018-12-13": 85,
    "2018-12-14": 74,
    "2018-12-15": 65,
    "2018-12-16": 90,
    "2018-12-17": 87,
    "2018-12-18": 83,
    "2018-12-19": 72,
    "2018-12-20": 79,
    "2018-12-21": 83,
    "2018-12-22": 70,
    "2018-12-23": 75,
    "2018-12-24": 77,
    "2018-12-25": 68,
    "2018-12-26": 86,
    "2018-12-27": 76,
    "2018-12-28": 86,
    "2018-12-29": 89,
    "2018-12-30": 73,
    "2018-12-31": 70
  },
  "medium": {
    "2018-10-1": 73,
    "2018-10-2": 76,
    "2018-10-3": 101,
    "2018-10-4": 84,
    "2018-10-5": 90,
    "2018-10-6": 97,
    "2018-10-7": 77,
    "2018-10-8": 81,
    "2018-10-9": 98,
    "2018-10-10": 83,
    "2018-10-11": 82,
    "2018-10-12": 70,
    "2018-10-13": 99,
    "2018-10-14": 83,
    "2018-10-15": 81,
    "2018-10-16": 80,
    "2018-10-17": 82,
    "2018-10-18": 89,
    "2018-10-19": 89,
    "2018-10-20": 71,
    "2018-10-21": 73,
    "2018-10-22": 74,
    "2018-10-23": 83,
    "2018-10-24": 91,
    "2018-10-25": 85,
    "2018-10-26": 90,
    "2018-10-27": 77,
    "2018-10-28": 102,
    "2018-10-29": 75,
    "2018-10-30": 78,
    "2018-10-31": 70,
    "2018-11-1": 90,
    "2018-11-2": 96,
    "2018-11-3": 98,
    "2018-11-4": 88,
    "2018-11-5": 79,
    "2018-11-6": 91,
    "2018-11-7": 101,
    "2018-11-8": 75,
    "2018-11-9": 75,
    "2018-11-10": 84,
    "2018-11-11": 70,
    "2018-11-12": 89,
    "2018-11-13": 104,
    "2018-11-14": 90,
    "2018-11-15": 81,
    "2018-11-16": 102,
    "2018-11-17": 86,
    "2018-11-18": 80,
    "2018-11-19": 71,
    "2018-11-20": 72,
    "2018-11-21": 103,
    "2018-11-22": 89,
    "2018-11-23": 83,
    "2018-11-24": 79,
    "2018-11-25": 87,
    "2018-11-26": 79,
    "2018-11-27": 104,
    "2018-11-28": 70,
    "2018-11-29": 103,
    "2018-11-30": 86,
    "2018-12-1": 86,
    "2018-12-2": 77,
    "2018-12-3": 96,
    "2018-12-4": 95,
    "2018-12-5": 74,
    "2018-12-6": 99,
    "2018-12-7": 101,
    "2018-12-8": 78,
    "2018-12-9": 83,
    "2018-12-10": 76,
    "2018-12-11": 77,
    "2018-12-12": 105,
    "2018-12-13": 81,
    "2018-12-14": 82,
    "2018-12-15": 90,
    "2018-12-16": 88,
    "2018-12-17": 78,
    "2018-12-18": 82,
    "2018-12-19": 83,
    "2018-12-20": 105,
    "2018-12-21": 70,
    "2018-12-22": 85,
    "2018-12-23": 91,
    "2018-12-24": 89,
    "2018-12-25": 83,
    "2018-12-26": 73,
    "2018-12-27": 91,
    "2018-12-28": 77,
    "2018-12-29": 101,
    "2018-12-30": 83,
    "2018-12-31": 94
  },
  "high": {
    "2018-10-1": 43,
    "2018-10-2": 42,
    "2018-10-3": 42,
    "2018-10-4": 49,
    "2018-10-5": 44,
    "2018-10-6": 59,
    "2018-10-7": 49,
    "2018-10-8": 53,
    "2018-10-9": 44,
    "2018-10-10": 51,
    "2018-10-11": 43,
    "2018-10-12": 53,
    "2018-10-13": 52,
    "2018-10-14": 43,
    "2018-10-15": 60,
    "2018-10-16": 53,
    "2018-10-17": 57,
    "2018-10-18": 42,
    "2018-10-19": 46,
    "2018-10-20": 43,
    "2018-10-21": 43,
    "2018-10-22": 41,
    "2018-10-23": 47,
    "2018-10-24": 44,
    "2018-10-25": 43,
    "2018-10-26": 60,
    "2018-10-27": 43,
    "2018-10-28": 59,
    "2018-10-29": 55,
    "2018-10-30": 45,
    "2018-10-31": 51,
    "2018-11-1": 55,
    "2018-11-2": 50,
    "2018-11-3": 43,
    "2018-11-4": 41,
    "2018-11-5": 51,
    "2018-11-6": 49,
    "2018-11-7": 49,
    "2018-11-8": 60,
    "2018-11-9": 60,
    "2018-11-10": 43,
    "2018-11-11": 57,
    "2018-11-12": 42,
    "2018-11-13": 59,
    "2018-11-14": 41,
    "2018-11-15": 53,
    "2018-11-16": 53,
    "2018-11-17": 43,
    "2018-11-18": 53,
    "2018-11-19": 48,
    "2018-11-20": 56,
    "2018-11-21": 51,
    "2018-11-22": 42,
    "2018-11-23": 60,
    "2018-11-24": 50,
    "2018-11-25": 49,
    "2018-11-26": 47,
    "2018-11-27": 46,
    "2018-11-28": 40,
    "2018-11-29": 41,
    "2018-11-30": 57,
    "2018-12-1": 57,
    "2018-12-2": 45,
    "2018-12-3": 52,
    "2018-12-4": 46,
    "2018-12-5": 56,
    "2018-12-6": 48,
    "2018-12-7": 58,
    "2018-12-8": 59,
    "2018-12-9": 47,
    "2018-12-10": 58,
    "2018-12-11": 50,
    "2018-12-12": 45,
    "2018-12-13": 59,
    "2018-12-14": 40,
    "2018-12-15": 40,
    "2018-12-16": 48,
    "2018-12-17": 44,
    "2018-12-18": 54,
    "2018-12-19": 44,
    "2018-12-20": 57,
    "2018-12-21": 54,
    "2018-12-22": 44,
    "2018-12-23": 59,
    "2018-12-24": 41,
    "2018-12-25": 52,
    "2018-12-26": 52,
    "2018-12-27": 50,
    "2018-12-28": 49,
    "2018-12-29": 45,
    "2018-12-30": 44,
    "2018-12-31": 60
  },
  "critical": {
    "2018-10-1": 54,
    "2018-10-2": 67,
    "2018-10-3": 62,
    "2018-10-4": 63,
    "2018-10-5": 51,
    "2018-10-6": 56,
    "2018-10-7": 66,
    "2018-10-8": 69,
    "2018-10-9": 58,
    "2018-10-10": 61,
    "2018-10-11": 69,
    "2018-10-12": 73,
    "2018-10-13": 68,
    "2018-10-14": 64,
    "2018-10-15": 69,
    "2018-10-16": 63,
    "2018-10-17": 72,
    "2018-10-18": 71,
    "2018-10-19": 56,
    "2018-10-20": 71,
    "2018-10-21": 59,
    "2018-10-22": 55,
    "2018-10-23": 51,
    "2018-10-24": 74,
    "2018-10-25": 68,
    "2018-10-26": 74,
    "2018-10-27": 53,
    "2018-10-28": 73,
    "2018-10-29": 54,
    "2018-10-30": 53,
    "2018-10-31": 53,
    "2018-11-1": 68,
    "2018-11-2": 71,
    "2018-11-3": 57,
    "2018-11-4": 59,
    "2018-11-5": 58,
    "2018-11-6": 67,
    "2018-11-7": 56,
    "2018-11-8": 74,
    "2018-11-9": 54,
    "2018-11-10": 67,
    "2018-11-11": 61,
    "2018-11-12": 73,
    "2018-11-13": 58,
    "2018-11-14": 56,
    "2018-11-15": 55,
    "2018-11-16": 72,
    "2018-11-17": 53,
    "2018-11-18": 68,
    "2018-11-19": 52,
    "2018-11-20": 64,
    "2018-11-21": 72,
    "2018-11-22": 50,
    "2018-11-23": 59,
    "2018-11-24": 56,
    "2018-11-25": 74,
    "2018-11-26": 71,
    "2018-11-27": 66,
    "2018-11-28": 55,
    "2018-11-29": 51,
    "2018-11-30": 63,
    "2018-12-1": 54,
    "2018-12-2": 63,
    "2018-12-3": 64,
    "2018-12-4": 51,
    "2018-12-5": 66,
    "2018-12-6": 61,
    "2018-12-7": 62,
    "2018-12-8": 59,
    "2018-12-9": 69,
    "2018-12-10": 73,
    "2018-12-11": 67,
    "2018-12-12": 58,
    "2018-12-13": 69,
    "2018-12-14": 71,
    "2018-12-15": 69,
    "2018-12-16": 72,
    "2018-12-17": 73,
    "2018-12-18": 59,
    "2018-12-19": 60,
    "2018-12-20": 52,
    "2018-12-21": 71,
    "2018-12-22": 56,
    "2018-12-23": 61,
    "2018-12-24": 61,
    "2018-12-25": 72,
    "2018-12-26": 66,
    "2018-12-27": 67,
    "2018-12-28": 72,
    "2018-12-29": 58,
    "2018-12-30": 68,
    "2018-12-31": 54
  },
  "unknown": {
    "2018-10-1": 39,
    "2018-10-2": 44,
    "2018-10-3": 35,
    "2018-10-4": 34,
    "2018-10-5": 38,
    "2018-10-6": 34,
    "2018-10-7": 34,
    "2018-10-8": 43,
    "2018-10-9": 41,
    "2018-10-10": 45,
    "2018-10-11": 41,
    "2018-10-12": 37,
    "2018-10-13": 34,
    "2018-10-14": 41,
    "2018-10-15": 45,
    "2018-10-16": 33,
    "2018-10-17": 40,
    "2018-10-18": 31,
    "2018-10-19": 42,
    "2018-10-20": 33,
    "2018-10-21": 44,
    "2018-10-22": 33,
    "2018-10-23": 35,
    "2018-10-24": 37,
    "2018-10-25": 43,
    "2018-10-26": 33,
    "2018-10-27": 43,
    "2018-10-28": 39,
    "2018-10-29": 37,
    "2018-10-30": 36,
    "2018-10-31": 37,
    "2018-11-1": 42,
    "2018-11-2": 41,
    "2018-11-3": 36,
    "2018-11-4": 31,
    "2018-11-5": 41,
    "2018-11-6": 37,
    "2018-11-7": 42,
    "2018-11-8": 42,
    "2018-11-9": 45,
    "2018-11-10": 34,
    "2018-11-11": 30,
    "2018-11-12": 40,
    "2018-11-13": 39,
    "2018-11-14": 44,
    "2018-11-15": 36,
    "2018-11-16": 35,
    "2018-11-17": 30,
    "2018-11-18": 31,
    "2018-11-19": 34,
    "2018-11-20": 31,
    "2018-11-21": 36,
    "2018-11-22": 37,
    "2018-11-23": 41,
    "2018-11-24": 38,
    "2018-11-25": 42,
    "2018-11-26": 41,
    "2018-11-27": 36,
    "2018-11-28": 32,
    "2018-11-29": 43,
    "2018-11-30": 36,
    "2018-12-1": 44,
    "2018-12-2": 34,
    "2018-12-3": 42,
    "2018-12-4": 32,
    "2018-12-5": 44,
    "2018-12-6": 31,
    "2018-12-7": 39,
    "2018-12-8": 37,
    "2018-12-9": 33,
    "2018-12-10": 37,
    "2018-12-11": 38,
    "2018-12-12": 35,
    "2018-12-13": 34,
    "2018-12-14": 40,
    "2018-12-15": 35,
    "2018-12-16": 42,
    "2018-12-17": 44,
    "2018-12-18": 40,
    "2018-12-19": 40,
    "2018-12-20": 30,
    "2018-12-21": 44,
    "2018-12-22": 32,
    "2018-12-23": 39,
    "2018-12-24": 37,
    "2018-12-25": 35,
    "2018-12-26": 39,
    "2018-12-27": 38,
    "2018-12-28": 44,
    "2018-12-29": 42,
    "2018-12-30": 37,
    "2018-12-31": 35
  },
  "all": {
    "2018-10-1": 143,
    "2018-10-2": 130,
    "2018-10-3": 139,
    "2018-10-4": 134,
    "2018-10-5": 138,
    "2018-10-6": 131,
    "2018-10-7": 137,
    "2018-10-8": 144,
    "2018-10-9": 140,
    "2018-10-10": 134,
    "2018-10-11": 142,
    "2018-10-12": 132,
    "2018-10-13": 136,
    "2018-10-14": 141,
    "2018-10-15": 134,
    "2018-10-16": 139,
    "2018-10-17": 141,
    "2018-10-18": 134,
    "2018-10-19": 131,
    "2018-10-20": 141,
    "2018-10-21": 139,
    "2018-10-22": 145,
    "2018-10-23": 142,
    "2018-10-24": 143,
    "2018-10-25": 143,
    "2018-10-26": 135,
    "2018-10-27": 136,
    "2018-10-28": 143,
    "2018-10-29": 142,
    "2018-10-30": 131,
    "2018-10-31": 141,
    "2018-11-1": 134,
    "2018-11-2": 134,
    "2018-11-3": 130,
    "2018-11-4": 137,
    "2018-11-5": 145,
    "2018-11-6": 137,
    "2018-11-7": 135,
    "2018-11-8": 145,
    "2018-11-9": 132,
    "2018-11-10": 134,
    "2018-11-11": 139,
    "2018-11-12": 139,
    "2018-11-13": 130,
    "2018-11-14": 137,
    "2018-11-15": 136,
    "2018-11-16": 145,
    "2018-11-17": 130,
    "2018-11-18": 143,
    "2018-11-19": 134,
    "2018-11-20": 145,
    "2018-11-21": 137,
    "2018-11-22": 140,
    "2018-11-23": 138,
    "2018-11-24": 132,
    "2018-11-25": 143,
    "2018-11-26": 131,
    "2018-11-27": 130,
    "2018-11-28": 144,
    "2018-11-29": 139,
    "2018-11-30": 143,
    "2018-12-1": 139,
    "2018-12-2": 137,
    "2018-12-3": 142,
    "2018-12-4": 137,
    "2018-12-5": 134,
    "2018-12-6": 133,
    "2018-12-7": 137,
    "2018-12-8": 140,
    "2018-12-9": 130,
    "2018-12-10": 132,
    "2018-12-11": 134,
    "2018-12-12": 143,
    "2018-12-13": 130,
    "2018-12-14": 133,
    "2018-12-15": 137,
    "2018-12-16": 141,
    "2018-12-17": 139,
    "2018-12-18": 145,
    "2018-12-19": 141,
    "2018-12-20": 137,
    "2018-12-21": 139,
    "2018-12-22": 131,
    "2018-12-23": 134,
    "2018-12-24": 144,
    "2018-12-25": 140,
    "2018-12-26": 145,
    "2018-12-27": 138,
    "2018-12-28": 136,
    "2018-12-29": 144,
    "2018-12-30": 131,
    "2018-12-31": 142
  }
}